{
  "project_info": {
    "project_number": "504527021859",
    "firebase_url": "https://textrecognition-e9e51.firebaseio.com",
    "project_id": "textrecognition-e9e51",
    "storage_bucket": "textrecognition-e9e51.appspot.com"
  },
  "client": [
    {
      "client_info": {
        "mobilesdk_app_id": "1:504527021859:android:2906f84d351307c2a70e96",
        "android_client_info": {
          "package_name": "com.textrecognition"
        }
      },
      "oauth_client": [
        {
          "client_id": "504527021859-dk78c88mvsdvnc2dm00sf5d9l1u82bgm.apps.googleusercontent.com",
          "client_type": 3
        }
      ],
      "api_key": [
        {
          "current_key": "AIzaSyDZqx8R-7svjYpMcOal5Z_rNhjz3Zl425M"
        }
      ],
      "services": {
        "appinvite_service": {
          "other_platform_oauth_client": [
            {
              "client_id": "504527021859-dk78c88mvsdvnc2dm00sf5d9l1u82bgm.apps.googleusercontent.com",
              "client_type": 3
            }
          ]
        }
      }
    }
  ],
  "configuration_version": "1"
}